test/verilog/display_3bits_counter_tb.vcd
$date
	Fri Sep 26 21:33:17 2025
$end
$version
	Icarus Verilog
$end
$timescale
	1ps
$end
$scope module display_3bits_counter_tb $end
$var wire 1 ! output_7_segment_display1_a_top_7 $end
$var wire 1 " output_7_segment_display1_b_upper_right_8 $end
$var wire 1 # output_7_segment_display1_c_lower_right_10 $end
$var wire 1 $ output_7_segment_display1_d_bottom_6 $end
$var wire 1 % output_7_segment_display1_dp_dot_9 $end
$var wire 1 & output_7_segment_display1_e_lower_left_5 $end
$var wire 1 ' output_7_segment_display1_f_upper_left_4 $end
$var wire 1 ( output_7_segment_display1_g_middle_3 $end
$var reg 8 ) display_pattern [7:0] $end
$var reg 1 * input_clock1_1 $end
$var reg 1 + input_push_button2_btn_2 $end
$var integer 32 , cycle_count [31:0] $end
$var integer 32 - pass_count [31:0] $end
$var integer 32 . test_count [31:0] $end
$scope module dut $end
$var wire 1 * input_clock1_1 $end
$var wire 1 + input_push_button2_btn_2 $end
$var wire 1 / node_67 $end
$var wire 1 ! output_7_segment_display1_a_top_7 $end
$var wire 1 " output_7_segment_display1_b_upper_right_8 $end
$var wire 1 # output_7_segment_display1_c_lower_right_10 $end
$var wire 1 $ output_7_segment_display1_d_bottom_6 $end
$var wire 1 % output_7_segment_display1_dp_dot_9 $end
$var wire 1 & output_7_segment_display1_e_lower_left_5 $end
$var wire 1 ' output_7_segment_display1_f_upper_left_4 $end
$var wire 1 ( output_7_segment_display1_g_middle_3 $end
$var reg 1 0 output_7_segment_display1_g_middle_3_behavioral_reg $end
$var reg 1 1 t_flip_flop_57_0_q $end
$var reg 1 2 t_flip_flop_57_1_q $end
$var reg 1 3 t_flip_flop_59_0_q $end
$var reg 1 4 t_flip_flop_59_1_q $end
$var reg 1 5 t_flip_flop_61_0_q $end
$var reg 1 6 t_flip_flop_61_1_q $end
$upscope $end
$scope task test_reset $end
$upscope $end
$upscope $end
$enddefinitions $end
#0
$dumpvars
06
05
04
03
02
01
00
z/
b0 .
b0 -
b0 ,
1+
0*
b0xxxxx1x )
0(
x'
x&
1%
x$
x#
x"
x!
$end
#100000
0+
#500000
b1 ,
1*
#520000
b1 -
b1 .
#1000000
0*
#1500000
b10 ,
1*
#1520000
b10 -
b10 .
#2000000
0*
#2500000
b11 ,
1*
#2520000
b11 -
b11 .
#3000000
0*
#3500000
b100 ,
1*
#3520000
b100 -
b100 .
#4000000
0*
#4500000
b101 ,
1*
#4520000
b101 -
b101 .
#5000000
0*
#5500000
b110 ,
1*
#5520000
b110 -
b110 .
#6000000
0*
#6500000
b111 ,
1*
#6520000
b111 -
b111 .
#7000000
0*
#7500000
1+
b1000 ,
1*
#7520000
b1000 -
b1000 .
#7600000
0+
#8000000
0*
#8500000
b1001 ,
1*
#8520000
b1001 -
b1001 .
#9000000
0*
#9500000
b1010 ,
1*
#9520000
b1010 -
b1010 .
#10000000
0*
#10500000
b1011 ,
1*
