test/verilog/notes_tb.vcd
$date
	Fri Sep 26 21:01:40 2025
$end
$version
	Icarus Verilog
$end
$timescale
	1ps
$end
$scope module notes_tb $end
$var wire 1 ! output_buzzer1_g6_2 $end
$var wire 1 " output_buzzer2_f6_3 $end
$var wire 1 # output_buzzer3_d6_4 $end
$var wire 1 $ output_buzzer4_b7_5 $end
$var wire 1 % output_buzzer5_c6_6 $end
$var wire 1 & output_buzzer6_a7_7 $end
$var wire 1 ' output_buzzer7_e6_8 $end
$var wire 1 ( output_buzzer8_c7_9 $end
$var reg 8 ) buzzer_pattern [7:0] $end
$var reg 1 * input_clock1_1 $end
$var reg 8 + previous_pattern [7:0] $end
$var integer 32 , cycle_count [31:0] $end
$var integer 32 - pass_count [31:0] $end
$var integer 32 . test_count [31:0] $end
$scope module dut $end
$var wire 1 * input_clock1_1 $end
$var wire 1 ! output_buzzer1_g6_2 $end
$var wire 1 " output_buzzer2_f6_3 $end
$var wire 1 # output_buzzer3_d6_4 $end
$var wire 1 $ output_buzzer4_b7_5 $end
$var wire 1 % output_buzzer5_c6_6 $end
$var wire 1 & output_buzzer6_a7_7 $end
$var wire 1 ' output_buzzer7_e6_8 $end
$var wire 1 ( output_buzzer8_c7_9 $end
$var reg 1 / jk_flip_flop_125_0_q $end
$var reg 1 0 jk_flip_flop_125_1_q $end
$var reg 1 1 jk_flip_flop_126_0_q $end
$var reg 1 2 jk_flip_flop_126_1_q $end
$var reg 1 3 jk_flip_flop_127_0_q $end
$var reg 1 4 jk_flip_flop_127_1_q $end
$upscope $end
$scope task analyze_pattern_sequence $end
$var integer 32 5 num_cycles [31:0] $end
$upscope $end
$upscope $end
$enddefinitions $end
#0
$dumpvars
bx 5
04
03
02
01
10
0/
b0 .
b0 -
b0 ,
b0 +
0*
b0 )
0(
0'
0&
0%
0$
0#
0"
0!
$end
#500000
b1 ,
1*
#520000
b1 -
b1 .
#1000000
0*
b10000 5
#1500000
b10 ,
1*
#2000000
0*
#2500000
b11 ,
1*
#3000000
0*
#3500000
b100 ,
1*
#4000000
0*
#4500000
b101 ,
1*
#5000000
0*
#5500000
b110 ,
1*
#6000000
0*
#6500000
b111 ,
1*
#7000000
0*
#7500000
b1000 ,
1*
#8000000
0*
#8500000
b1001 ,
1*
#9000000
0*
#9500000
b1010 ,
1*
#10000000
0*
#10500000
b1011 ,
1*
#11000000
0*
#11500000
b1100 ,
1*
#12000000
0*
#12500000
b1101 ,
1*
#13000000
0*
#13500000
b1110 ,
1*
#14000000
0*
#14500000
b1111 ,
1*
#15000000
0*
#15500000
b10000 ,
1*
#16000000
0*
#16500000
b100000 5
b10001 ,
1*
#17000000
0*
#17500000
b10010 ,
1*
#18000000
0*
#18500000
b10011 ,
1*
#19000000
0*
#19500000
b10100 ,
1*
#20000000
0*
#20500000
b10101 ,
1*
#21000000
0*
#21500000
b10110 ,
1*
#22000000
0*
#22500000
b10111 ,
1*
#23000000
0*
#23500000
b11000 ,
1*
#24000000
0*
#24500000
b11001 ,
1*
#25000000
0*
#25500000
b11010 ,
1*
#26000000
0*
#26500000
b11011 ,
1*
#27000000
0*
#27500000
b11100 ,
1*
#28000000
0*
#28500000
b11101 ,
1*
#29000000
0*
#29500000
b11110 ,
1*
#30000000
0*
#30500000
b11111 ,
1*
#31000000
0*
#31500000
b100000 ,
1*
#32000000
0*
#32500000
b100001 ,
1*
#33000000
0*
#33500000
b100010 ,
1*
#34000000
0*
#34500000
b100011 ,
1*
#35000000
0*
#35500000
b100100 ,
1*
#36000000
0*
#36500000
b100101 ,
1*
#37000000
0*
#37500000
b100110 ,
1*
#38000000
0*
#38500000
b100111 ,
1*
#39000000
0*
#39500000
b101000 ,
1*
#40000000
0*
#40500000
b101001 ,
1*
#41000000
0*
#41500000
b101010 ,
1*
#42000000
0*
#42500000
b101011 ,
1*
#43000000
0*
#43500000
b101100 ,
1*
#44000000
0*
#44500000
b101101 ,
1*
#45000000
0*
#45500000
b101110 ,
1*
#46000000
0*
#46500000
b101111 ,
1*
#47000000
0*
#47500000
b110000 ,
1*
#48000000
0*
#48500000
b1000000 5
b110001 ,
1*
#49000000
0*
#49500000
b110010 ,
1*
#50000000
0*
#50500000
b110011 ,
1*
#51000000
0*
#51500000
b110100 ,
1*
#52000000
0*
#52500000
b110101 ,
1*
#53000000
0*
#53500000
b110110 ,
1*
#54000000
0*
#54500000
b110111 ,
1*
#55000000
0*
#55500000
b111000 ,
1*
#56000000
0*
#56500000
b111001 ,
1*
#57000000
0*
#57500000
b111010 ,
1*
#58000000
0*
#58500000
b111011 ,
1*
#59000000
0*
#59500000
b111100 ,
1*
#60000000
0*
#60500000
b111101 ,
1*
#61000000
0*
#61500000
b111110 ,
1*
#62000000
0*
#62500000
b111111 ,
1*
#63000000
0*
#63500000
b1000000 ,
1*
#64000000
0*
#64500000
b1000001 ,
1*
#65000000
0*
#65500000
b1000010 ,
1*
#66000000
0*
#66500000
b1000011 ,
1*
#67000000
0*
#67500000
b1000100 ,
1*
#68000000
0*
#68500000
b1000101 ,
1*
#69000000
0*
#69500000
b1000110 ,
1*
#70000000
0*
#70500000
b1000111 ,
1*
#71000000
0*
#71500000
b1001000 ,
1*
#72000000
0*
#72500000
b1001001 ,
1*
#73000000
0*
#73500000
b1001010 ,
1*
#74000000
0*
#74500000
b1001011 ,
1*
#75000000
0*
#75500000
b1001100 ,
1*
#76000000
0*
#76500000
b1001101 ,
1*
#77000000
0*
#77500000
b1001110 ,
1*
#78000000
0*
#78500000
b1001111 ,
1*
#79000000
0*
#79500000
b1010000 ,
1*
#80000000
0*
#80500000
b1010001 ,
1*
#81000000
0*
#81500000
b1010010 ,
1*
#82000000
0*
#82500000
b1010011 ,
1*
#83000000
0*
#83500000
b1010100 ,
1*
#84000000
0*
#84500000
b1010101 ,
1*
#85000000
0*
#85500000
b1010110 ,
1*
#86000000
0*
#86500000
b1010111 ,
1*
#87000000
0*
#87500000
b1011000 ,
1*
#88000000
0*
#88500000
b1011001 ,
1*
#89000000
0*
#89500000
b1011010 ,
1*
#90000000
0*
#90500000
b1011011 ,
1*
#91000000
0*
#91500000
b1011100 ,
1*
#92000000
0*
#92500000
b1011101 ,
1*
#93000000
0*
#93500000
b1011110 ,
1*
#94000000
0*
#94500000
b1011111 ,
1*
#95000000
0*
#95500000
b1100000 ,
1*
#96000000
0*
#96500000
b1100001 ,
1*
#97000000
0*
#97500000
b1100010 ,
1*
#98000000
0*
#98500000
b1100011 ,
1*
#99000000
0*
#99500000
b1100100 ,
1*
#100000000
0*
#100500000
b1100101 ,
1*
#101000000
0*
#101500000
b1100110 ,
1*
#102000000
0*
#102500000
b1100111 ,
1*
#103000000
0*
#103500000
b1101000 ,
1*
#104000000
0*
#104500000
b1101001 ,
1*
#105000000
0*
#105500000
b1101010 ,
1*
#106000000
0*
#106500000
b1101011 ,
1*
#107000000
0*
#107500000
b1101100 ,
1*
#108000000
0*
#108500000
b1101101 ,
1*
#109000000
0*
#109500000
b1101110 ,
1*
#110000000
0*
#110500000
b1101111 ,
1*
#111000000
0*
#111500000
b1110000 ,
1*
#112000000
0*
#112500000
b1110001 ,
0*
#113000000
b1110010 ,
1*
