test/verilog/serialize_tb.vcd
$date
	Fri Sep 26 21:01:41 2025
$end
$version
	Icarus Verilog
$end
$timescale
	1ps
$end
$scope module serialize_tb $end
$var wire 1 ! output_led2_0_8 $end
$var wire 1 " output_led1_0_7 $end
$var reg 1 # input_input_switch1_load__shift_1 $end
$var reg 1 $ input_input_switch2_clock_2 $end
$var reg 1 % input_input_switch3_d0_3 $end
$var reg 1 & input_input_switch4_d1_4 $end
$var reg 1 ' input_input_switch5_d2_5 $end
$var reg 1 ( input_input_switch6_d3_6 $end
$var reg 2 ) output_state [1:0] $end
$var reg 4 * test_data [3:0] $end
$var integer 32 + cycle_count [31:0] $end
$var integer 32 , pass_count [31:0] $end
$var integer 32 - test_count [31:0] $end
$scope module dut $end
$var wire 1 . and_16 $end
$var wire 1 / and_17 $end
$var wire 1 0 and_23 $end
$var wire 1 1 and_24 $end
$var wire 1 2 and_30 $end
$var wire 1 3 and_31 $end
$var wire 1 4 and_38 $end
$var wire 1 # input_input_switch1_load__shift_1 $end
$var wire 1 $ input_input_switch2_clock_2 $end
$var wire 1 % input_input_switch3_d0_3 $end
$var wire 1 & input_input_switch4_d1_4 $end
$var wire 1 ' input_input_switch5_d2_5 $end
$var wire 1 ( input_input_switch6_d3_6 $end
$var wire 1 5 node_10 $end
$var wire 1 6 node_11 $end
$var wire 1 7 node_13 $end
$var wire 1 8 node_14 $end
$var wire 1 9 node_18 $end
$var wire 1 : node_20 $end
$var wire 1 ; node_21 $end
$var wire 1 < node_25 $end
$var wire 1 = node_27 $end
$var wire 1 > node_28 $end
$var wire 1 ? node_32 $end
$var wire 1 @ node_34 $end
$var wire 1 A node_35 $end
$var wire 1 B node_37 $end
$var wire 1 C node_9 $end
$var wire 1 D not_12 $end
$var wire 1 E or_19 $end
$var wire 1 F or_26 $end
$var wire 1 G or_33 $end
$var wire 1 " output_led1_0_7 $end
$var wire 1 ! output_led2_0_8 $end
$var reg 1 H d_flip_flop_15_0_q $end
$var reg 1 I d_flip_flop_15_1_q $end
$var reg 1 J d_flip_flop_22_0_q $end
$var reg 1 K d_flip_flop_22_1_q $end
$var reg 1 L d_flip_flop_29_0_q $end
$var reg 1 M d_flip_flop_29_1_q $end
$var reg 1 N d_flip_flop_36_0_q $end
$var reg 1 O d_flip_flop_36_1_q $end
$upscope $end
$scope task clock_pulse $end
$upscope $end
$scope task test_load_data $end
$var reg 4 P data [3:0] $end
$upscope $end
$scope task test_shift $end
$upscope $end
$upscope $end
$enddefinitions $end
#0
$dumpvars
bx P
0O
0N
0M
0L
0K
0J
0I
0H
0G
0F
0E
1D
0C
zB
zA
1@
0?
1>
z=
0<
1;
z:
09
18
z7
z6
05
04
03
02
01
00
0/
0.
b0 -
b0 ,
b0 +
bx *
b0z )
0(
0'
0&
0%
0$
0#
z"
0!
$end
#100000
08
0;
0>
0@
0D
1C
1#
b0 *
b1 -
b0 P
#150000
1O
1M
1K
1I
1?
1<
19
15
1$
#200000
0?
0<
09
05
0$
#250000
18
1;
1>
1@
1D
0C
0#
b1 +
b10 -
b1 ,
#300000
1?
1<
19
15
1$
#350000
0?
0<
09
05
0$
#400000
b10 +
b11 -
b10 ,
#450000
1?
1<
19
15
1$
#500000
0?
0<
09
05
0$
#550000
b11 +
b100 -
b11 ,
#600000
1?
1<
19
15
1$
#650000
0?
0<
09
05
0$
#700000
b100 +
b101 -
b100 ,
#750000
1?
1<
19
15
1$
#800000
0?
0<
09
05
0$
#850000
xG
xF
xE
08
0;
0>
0@
0D
x3
x0
x/
1C
1#
1(
1'
1&
1%
b1111 *
b110 -
b1111 P
b101 ,
#900000
xO
xN
xM
xL
xK
xJ
0I
1H
1?
1<
19
15
1$
#950000
0?
0<
09
05
0$
#1000000
1E
bxz )
1.
x1
x2
x!
x4
18
1;
1>
1@
1D
0C
0#
b101 +
b111 -
b110 ,
#1050000
1F
11
0K
1J
1?
1<
19
15
1$
#1100000
0?
0<
09
05
0$
#1150000
b110 +
b1000 -
b111 ,
#1200000
1G
12
0M
1L
1?
1<
19
15
1$
#1250000
0?
0<
09
05
0$
#1300000
b111 +
b1001 -
b1000 ,
#1350000
b1z )
1!
14
0O
1N
1?
1<
19
15
1$
#1400000
0?
0<
09
05
0$
#1450000
b1000 +
b1010 -
b1001 ,
#1500000
1?
1<
19
15
1$
#1550000
0?
0<
09
05
0$
#1600000
xE
0F
xG
b0z )
0.
01
02
0!
04
08
0;
0>
0@
0D
00
1C
1#
0'
0%
b1010 *
b1011 -
b1010 P
b1010 ,
#1650000
xO
xN
1M
0L
xK
xJ
1I
0H
1?
1<
19
15
1$
#1700000
0?
0<
09
05
0$
#1750000
xF
bxz )
x1
x!
x4
18
1;
1>
1@
1D
0C
0#
b1001 +
b1100 -
b1011 ,
#1800000
x2
xM
xL
1?
1<
19
15
1$
#1850000
0?
0<
09
05
0$
#1900000
b1010 +
b1101 -
b1100 ,
#1950000
1?
1<
19
15
1$
#2000000
0?
0<
09
05
0$
#2050000
b1011 +
b1110 -
b1101 ,
#2100000
1?
1<
19
15
1$
#2150000
0?
0<
09
05
0$
#2200000
b1100 +
b1111 -
b1110 ,
#2250000
1?
1<
19
15
1$
#2300000
0?
0<
09
05
0$
#2350000
0G
b0z )
01
02
0!
04
0E
08
0;
0>
0@
0D
03
x0
0/
1C
1#
0(
1'
0&
1%
b101 *
b10000 -
b101 P
b1111 ,
#2400000
1O
0N
1K
0J
0I
1H
1?
1<
19
15
1$
#2450000
0?
0<
09
05
0$
#2500000
1E
xG
1.
x2
18
1;
1>
1@
1D
0C
0#
b1101 +
b10001 -
b10000 ,
#2550000
bxz )
1F
x!
x4
11
xO
xN
0K
1J
1?
1<
19
15
1$
#2600000
0?
0<
09
05
0$
#2650000
b1110 +
b10010 -
b10001 ,
#2700000
1G
12
0M
1L
1?
1<
19
15
1$
#2750000
0?
0<
09
05
0$
#2800000
b1111 +
b10011 -
b10010 ,
#2850000
b1z )
1!
14
0O
1N
1?
1<
19
15
1$
#2900000
0?
0<
09
05
0$
#2950000
b10000 +
b10100 -
b10011 ,
#3000000
1?
1<
19
15
1$
#3050000
0?
0<
09
05
0$
#3100000
0E
xF
xG
b0z )
0.
01
02
0!
04
08
0;
0>
0@
0D
x3
1C
1#
1(
0%
b1100 *
b10101 -
b1100 P
b10100 ,
#3150000
xO
xN
xM
xL
1K
0J
1I
0H
1?
1<
19
15
1$
#3200000
0?
0<
09
05
0$
#3250000
bxz )
x2
x!
x4
18
1;
1>
1@
1D
0C
0#
b10001 +
b10110 -
b10101 ,
#3300000
1?
1<
19
15
1$
#3350000
0?
0<
09
05
0$
#3400000
b10010 +
b10111 -
b10110 ,
#3450000
1?
1<
19
15
1$
#3500000
0?
0<
09
05
0$
#3550000
b10011 +
b11000 -
b10111 ,
#3600000
1?
1<
19
15
1$
#3650000
0?
0<
09
05
0$
#3700000
b10100 +
b11001 -
b11000 ,
#3750000
1?
1<
19
15
1$
#3800000
0?
0<
09
05
0$
#3850000
0G
b0z )
02
0!
04
0F
xE
08
0;
0>
0@
0D
03
00
x/
1C
1#
0(
0'
1&
1%
b11 *
b11010 -
b11 P
b11001 ,
#3900000
1O
0N
1M
0L
xK
xJ
0I
1H
1?
1<
19
15
1$
#3950000
0?
0<
09
05
0$
#4000000
1E
xF
1.
x1
18
1;
1>
1@
1D
0C
0#
b10101 +
b11011 -
b11010 ,
#4050000
xG
1F
x2
11
xM
xL
0K
1J
1?
1<
19
15
1$
#4100000
0?
0<
09
05
0$
#4150000
b10110 +
b11100 -
b11011 ,
#4200000
bxz )
1G
x!
x4
12
xO
xN
0M
1L
1?
1<
19
15
1$
#4250000
0?
0<
09
05
0$
#4300000
b10111 +
b11101 -
b11100 ,
#4350000
b1z )
1!
14
0O
1N
1?
1<
19
15
1$
#4400000
0?
0<
09
05
0$
#4450000
b11000 +
b11110 -
b11101 ,
#4500000
1?
1<
19
15
1$
#4550000
0?
0<
09
05
0$
#4600000
0E
0F
xG
b0z )
0.
01
02
0!
04
08
0;
0>
0@
0D
x3
0/
1C
1#
1(
0&
b1001 *
b11111 -
b1001 P
b11110 ,
#4650000
xO
xN
1M
0L
1K
0J
1?
1<
19
15
1$
#4700000
0?
0<
09
05
0$
#4750000
1E
bxz )
1.
x!
x4
18
1;
1>
1@
1D
0C
0#
b11001 +
b100000 -
b11111 ,
#4800000
1F
11
0K
1J
1?
1<
19
15
1$
#4850000
0?
0<
09
05
0$
#4900000
b11010 +
b100001 -
b100000 ,
#4950000
1G
12
0M
1L
1?
1<
19
15
1$
#5000000
0?
0<
09
05
0$
#5050000
xE
xF
0G
b0z )
0.
01
02
0!
04
08
0;
0>
0@
0D
03
x0
x/
1C
1#
0(
1'
1&
0%
b110 *
b100010 -
b110 P
b100001 ,
#5100000
1O
0N
xM
xL
xK
xJ
1I
0H
1?
1<
19
15
1$
#5150000
0?
0<
09
05
0$
#5200000
xG
x1
x2
18
1;
1>
1@
1D
0C
0#
b11011 +
b100011 -
b100010 ,
#5250000
bxz )
x!
x4
xO
xN
1?
1<
19
15
1$
#5300000
0?
0<
09
05
0$
#5350000
b11100 +
b100100 -
b100011 ,
#5400000
1?
1<
19
15
1$
#5450000
0?
0<
09
05
0$
#5500000
b11101 +
b100101 -
b100100 ,
#5550000
1?
1<
19
15
1$
#5600000
0?
0<
09
05
0$
#5650000
b100101 ,
